%YAML 1.1
%TAG !u! tag:unity3d.com,2011:
--- !u!1 &5097626127592868851
GameObject:
  m_ObjectHideFlags: 0
  m_CorrespondingSourceObject: {fileID: 0}
  m_PrefabInstance: {fileID: 0}
  m_PrefabAsset: {fileID: 0}
  serializedVersion: 6
  m_Component:
  - component: {fileID: 5097626127592868850}
  - component: {fileID: 1752781625519974570}
  m_Layer: 0
  m_Name: Pickup
  m_TagString: Untagged
  m_Icon: {fileID: 0}
  m_NavMeshLayer: 0
  m_StaticEditorFlags: 0
  m_IsActive: 1
--- !u!4 &5097626127592868850
Transform:
  m_ObjectHideFlags: 0
  m_CorrespondingSourceObject: {fileID: 0}
  m_PrefabInstance: {fileID: 0}
  m_PrefabAsset: {fileID: 0}
  m_GameObject: {fileID: 5097626127592868851}
  m_LocalRotation: {x: 0, y: 0, z: 0, w: 1}
  m_LocalPosition: {x: 50.694, y: 13.18, z: 669.722}
  m_LocalScale: {x: 0.03, y: 0.03, z: 0.03}
  m_Children:
  - {fileID: 271574126001236122}
  m_Father: {fileID: 0}
  m_RootOrder: 0
  m_LocalEulerAnglesHint: {x: 0, y: 0, z: 0}
--- !u!136 &1752781625519974570
CapsuleCollider:
  m_ObjectHideFlags: 0
  m_CorrespondingSourceObject: {fileID: 0}
  m_PrefabInstance: {fileID: 0}
  m_PrefabAsset: {fileID: 0}
  m_GameObject: {fileID: 5097626127592868851}
  m_Material: {fileID: 0}
  m_IsTrigger: 1
  m_Enabled: 1
  m_Radius: 60
  m_Height: 161.61406
  m_Direction: 1
  m_Center: {x: 0, y: 77.97287, z: 0}
--- !u!95 &5097626126557295487
Animator:
  serializedVersion: 3
  m_ObjectHideFlags: 0
  m_CorrespondingSourceObject: {fileID: 0}
  m_PrefabInstance: {fileID: 0}
  m_PrefabAsset: {fileID: 0}
  m_GameObject: {fileID: 9130222814434678140}
  m_Enabled: 1
  m_Avatar: {fileID: 0}
  m_Controller: {fileID: 9100000, guid: 917c9c8fdb2c9f042ad525577d2d57b8, type: 2}
  m_CullingMode: 0
  m_UpdateMode: 0
  m_ApplyRootMotion: 0
  m_LinearVelocityBlending: 0
  m_WarningMessage: 
  m_HasTransformHierarchy: 1
  m_AllowConstantClipSamplingOptimization: 1
  m_KeepAnimatorControllerStateOnDisable: 0
--- !u!1001 &5097626126166262656
PrefabInstance:
  m_ObjectHideFlags: 0
  serializedVersion: 2
  m_Modification:
    m_TransformParent: {fileID: 5097626127592868850}
    m_Modifications:
    - target: {fileID: -927199367670048503, guid: 293105c889790684aaec2f5947106940,
        type: 3}
      propertyPath: m_Name
      value: Pickup@idle
      objectReference: {fileID: 0}
    - target: {fileID: -7780852270916936266, guid: 293105c889790684aaec2f5947106940,
        type: 3}
      propertyPath: m_Materials.Array.data[0]
      value: 
      objectReference: {fileID: 2100000, guid: 590ba20827e44db41a10b1400ab94e6e, type: 2}
    - target: {fileID: -6207307816317606429, guid: 293105c889790684aaec2f5947106940,
        type: 3}
      propertyPath: m_Materials.Array.data[0]
      value: 
      objectReference: {fileID: 2100000, guid: 590ba20827e44db41a10b1400ab94e6e, type: 2}
    - target: {fileID: -6057140222963153312, guid: 293105c889790684aaec2f5947106940,
        type: 3}
      propertyPath: m_Controller
      value: 
      objectReference: {fileID: 9100000, guid: 917c9c8fdb2c9f042ad525577d2d57b8, type: 2}
    - target: {fileID: -5584770644981932858, guid: 293105c889790684aaec2f5947106940,
        type: 3}
      propertyPath: m_Materials.Array.data[0]
      value: 
      objectReference: {fileID: 2100000, guid: 590ba20827e44db41a10b1400ab94e6e, type: 2}
    - target: {fileID: -5505834361777021573, guid: 293105c889790684aaec2f5947106940,
        type: 3}
      propertyPath: m_Materials.Array.data[0]
      value: 
      objectReference: {fileID: 2100000, guid: 590ba20827e44db41a10b1400ab94e6e, type: 2}
    - target: {fileID: -5019199186476133244, guid: 293105c889790684aaec2f5947106940,
        type: 3}
      propertyPath: m_Materials.Array.data[0]
      value: 
      objectReference: {fileID: 2100000, guid: 590ba20827e44db41a10b1400ab94e6e, type: 2}
    - target: {fileID: -4232317677173458201, guid: 293105c889790684aaec2f5947106940,
        type: 3}
      propertyPath: m_Materials.Array.data[0]
      value: 
      objectReference: {fileID: 2100000, guid: 590ba20827e44db41a10b1400ab94e6e, type: 2}
    - target: {fileID: -4216859302048453862, guid: 293105c889790684aaec2f5947106940,
        type: 3}
      propertyPath: m_LocalPosition.x
      value: 0
      objectReference: {fileID: 0}
    - target: {fileID: -4216859302048453862, guid: 293105c889790684aaec2f5947106940,
        type: 3}
      propertyPath: m_LocalPosition.y
      value: 0
      objectReference: {fileID: 0}
    - target: {fileID: -4216859302048453862, guid: 293105c889790684aaec2f5947106940,
        type: 3}
      propertyPath: m_LocalPosition.z
      value: 0
      objectReference: {fileID: 0}
    - target: {fileID: -4216859302048453862, guid: 293105c889790684aaec2f5947106940,
        type: 3}
      propertyPath: m_LocalRotation.x
      value: -0.7071068
      objectReference: {fileID: 0}
    - target: {fileID: -4216859302048453862, guid: 293105c889790684aaec2f5947106940,
        type: 3}
      propertyPath: m_LocalRotation.y
      value: -0
      objectReference: {fileID: 0}
    - target: {fileID: -4216859302048453862, guid: 293105c889790684aaec2f5947106940,
        type: 3}
      propertyPath: m_LocalRotation.z
      value: -0
      objectReference: {fileID: 0}
    - target: {fileID: -4216859302048453862, guid: 293105c889790684aaec2f5947106940,
        type: 3}
      propertyPath: m_LocalRotation.w
      value: 0.7071068
      objectReference: {fileID: 0}
    - target: {fileID: -4216859302048453862, guid: 293105c889790684aaec2f5947106940,
        type: 3}
      propertyPath: m_RootOrder
      value: 0
      objectReference: {fileID: 0}
    - target: {fileID: -4216859302048453862, guid: 293105c889790684aaec2f5947106940,
        type: 3}
      propertyPath: m_LocalEulerAnglesHint.x
      value: 0
      objectReference: {fileID: 0}
    - target: {fileID: -4216859302048453862, guid: 293105c889790684aaec2f5947106940,
        type: 3}
      propertyPath: m_LocalEulerAnglesHint.y
      value: 0
      objectReference: {fileID: 0}
    - target: {fileID: -4216859302048453862, guid: 293105c889790684aaec2f5947106940,
        type: 3}
      propertyPath: m_LocalEulerAnglesHint.z
      value: 0
      objectReference: {fileID: 0}
    - target: {fileID: -4216859302048453862, guid: 293105c889790684aaec2f5947106940,
        type: 3}
      propertyPath: m_LocalScale.x
      value: 1
      objectReference: {fileID: 0}
    - target: {fileID: -4216859302048453862, guid: 293105c889790684aaec2f5947106940,
        type: 3}
      propertyPath: m_LocalScale.y
      value: 1
      objectReference: {fileID: 0}
    - target: {fileID: -4216859302048453862, guid: 293105c889790684aaec2f5947106940,
        type: 3}
      propertyPath: m_LocalScale.z
      value: 1
      objectReference: {fileID: 0}
    - target: {fileID: -3893596296315495451, guid: 293105c889790684aaec2f5947106940,
        type: 3}
      propertyPath: m_Materials.Array.data[0]
      value: 
      objectReference: {fileID: 2100000, guid: 590ba20827e44db41a10b1400ab94e6e, type: 2}
    - target: {fileID: -2715046463663450183, guid: 293105c889790684aaec2f5947106940,
        type: 3}
      propertyPath: m_Materials.Array.data[0]
      value: 
      objectReference: {fileID: 2100000, guid: 590ba20827e44db41a10b1400ab94e6e, type: 2}
    - target: {fileID: -1504981713932161579, guid: 293105c889790684aaec2f5947106940,
        type: 3}
      propertyPath: m_Materials.Array.data[0]
      value: 
      objectReference: {fileID: 2100000, guid: f6b95e22a7744c446b0ba23a729096ea, type: 2}
    - target: {fileID: -527547858203266574, guid: 293105c889790684aaec2f5947106940,
        type: 3}
      propertyPath: m_Materials.Array.data[0]
      value: 
      objectReference: {fileID: 2100000, guid: 590ba20827e44db41a10b1400ab94e6e, type: 2}
    - target: {fileID: -514526722272746205, guid: 293105c889790684aaec2f5947106940,
        type: 3}
      propertyPath: m_Materials.Array.data[0]
      value: 
      objectReference: {fileID: 2100000, guid: 590ba20827e44db41a10b1400ab94e6e, type: 2}
    - target: {fileID: -246368122965912571, guid: 293105c889790684aaec2f5947106940,
        type: 3}
      propertyPath: m_Materials.Array.data[0]
      value: 
      objectReference: {fileID: 2100000, guid: 590ba20827e44db41a10b1400ab94e6e, type: 2}
    - target: {fileID: 88581821325515471, guid: 293105c889790684aaec2f5947106940,
        type: 3}
      propertyPath: m_Materials.Array.data[0]
      value: 
      objectReference: {fileID: 2100000, guid: 590ba20827e44db41a10b1400ab94e6e, type: 2}
    - target: {fileID: 5585055350760445921, guid: 293105c889790684aaec2f5947106940,
        type: 3}
      propertyPath: m_Materials.Array.data[0]
      value: 
      objectReference: {fileID: 2100000, guid: 590ba20827e44db41a10b1400ab94e6e, type: 2}
    - target: {fileID: 5780914412002508547, guid: 293105c889790684aaec2f5947106940,
        type: 3}
      propertyPath: m_Materials.Array.data[0]
      value: 
      objectReference: {fileID: 2100000, guid: 590ba20827e44db41a10b1400ab94e6e, type: 2}
    - target: {fileID: 5851762960176466344, guid: 293105c889790684aaec2f5947106940,
        type: 3}
      propertyPath: m_Materials.Array.data[0]
      value: 
      objectReference: {fileID: 2100000, guid: 590ba20827e44db41a10b1400ab94e6e, type: 2}
    - target: {fileID: 8868319079860005213, guid: 293105c889790684aaec2f5947106940,
        type: 3}
      propertyPath: m_Materials.Array.data[0]
      value: 
      objectReference: {fileID: 2100000, guid: 590ba20827e44db41a10b1400ab94e6e, type: 2}
    m_RemovedComponents: []
  m_SourcePrefab: {fileID: 100100000, guid: 293105c889790684aaec2f5947106940, type: 3}
--- !u!4 &271574126001236122 stripped
Transform:
  m_CorrespondingSourceObject: {fileID: -4216859302048453862, guid: 293105c889790684aaec2f5947106940,
    type: 3}
  m_PrefabInstance: {fileID: 5097626126166262656}
  m_PrefabAsset: {fileID: 0}
--- !u!1 &9130222814434678140 stripped
GameObject:
  m_CorrespondingSourceObject: {fileID: 4038452000318281468, guid: 293105c889790684aaec2f5947106940,
    type: 3}
  m_PrefabInstance: {fileID: 5097626126166262656}
  m_PrefabAsset: {fileID: 0}
